{
  "ThankYou": "Thank You. We will call you soon",
  "BidSend": "Application submitted",
  "ErrorNameEmpty": "Specify the reference to you",
  "ErrorNameNumeric": "Not a call sign in the army, but a name",
  "ErrorNameShort": "Name is too short",
  "ErrorNameLong": "Well, you have cool name, it was necessary in general all the Awards to indicate",
  "ErrorNameCorrect": "Interesting name",
  "ErrorTelEmpty": "Enter your phone number",
  "ErrorTelCorrect": "Incorrect phone number format",
  "ErrorEmailEmpty": "Enter your E-mail",
  "ErrorEmailCorrect": "Invalid Email format",
  "email": "alexei.mifrill.strizhak@gmail.com",
  "subject": "New order from StrizhakGroup.ru",
  "to_name": "LLC \"StrizhakGroup\"",
  "from_email": "alexei.mifrill.strizhak@gmail.com"
}
